{"page":1,"total_results":9243,"total_pages":463,"results":[{"vote_count":331,"id":363088,"video":false,"vote_average":7.2,"title":"Ant-Man and the Wasp","popularity":187.866,"poster_path":"\/rv1AWImgx386ULjcf62VYaW8zSt.jpg","original_language":"en","original_title":"Ant-Man and the Wasp","genre_ids":[28,12,14,35,878],"backdrop_path":"\/6P3c80EOm7BodndGBUAJHHsHKrp.jpg","adult":false,"overview":"As Scott Lang balances being both a superhero and a father, Hope van Dyne and Dr. Hank Pym present an urgent new mission that finds the Ant-Man fighting alongside the Wasp to uncover secrets from their past.","release_date":"2018-07-04"},{"vote_count":5527,"id":299536,"video":false,"vote_average":8.4,"title":"Avengers: Infinity War","popularity":136.138,"poster_path":"\/7WsyChQLEftFiDOVTGkv3hFpyyt.jpg","original_language":"en","original_title":"Avengers: Infinity War","genre_ids":[12,878,14,28],"backdrop_path":"\/bOGkgRGdhrBYJSLpXaxhXVstddV.jpg","adult":false,"overview":"As the Avengers and their allies have continued to protect the world from threats too large for any one hero to handle, a new danger has emerged from the cosmic shadows: Thanos. A despot of intergalactic infamy, his goal is to collect all six Infinity Stones, artifacts of unimaginable power, and use them to inflict his twisted will on all of reality. Everything the Avengers have fought for has led up to this moment - the fate of Earth and existence itself has never been more uncertain.","release_date":"2018-04-25"},{"vote_count":7199,"id":284053,"video":false,"vote_average":7.5,"title":"Thor: Ragnarok","popularity":132.177,"poster_path":"\/rzRwTcFvttcN1ZpX2xv4j3tSdJu.jpg","original_language":"en","original_title":"Thor: Ragnarok","genre_ids":[28,12,14,878,35],"backdrop_path":"\/kaIfm5ryEOwYg8mLbq8HkPuM1Fo.jpg","adult":false,"overview":"Thor is on the other side of the universe and finds himself in a race against time to get back to Asgard to stop Ragnarok, the prophecy of destruction to his homeworld and the end of Asgardian civilization, at the hands of an all-powerful new threat, the ruthless Hela.","release_date":"2017-10-25"}]}